{
    "id": "RestictionBundleGroup",
    "description": null,
    "parentClass": null,
    "listingParentClass": null,
    "useTraits": null,
    "listingUseTraits": null,
    "allowInherit": false,
    "allowVariants": false,
    "showVariants": false,
    "layoutDefinitions": {
        "fieldtype": "panel",
        "labelWidth": 100,
        "layout": null,
        "name": "pimcore_root",
        "type": null,
        "region": null,
        "title": null,
        "width": null,
        "height": null,
        "collapsible": false,
        "collapsed": false,
        "bodyStyle": null,
        "datatype": "layout",
        "permissions": null,
        "childs": [
            {
                "fieldtype": "tabpanel",
                "name": "Layout",
                "type": null,
                "region": null,
                "title": "",
                "width": null,
                "height": null,
                "collapsible": false,
                "collapsed": false,
                "bodyStyle": "",
                "datatype": "layout",
                "permissions": null,
                "childs": [
                    {
                        "fieldtype": "panel",
                        "labelWidth": 100,
                        "layout": null,
                        "name": "Documents",
                        "type": null,
                        "region": null,
                        "title": "Documents",
                        "width": null,
                        "height": null,
                        "collapsible": false,
                        "collapsed": false,
                        "bodyStyle": "",
                        "datatype": "layout",
                        "permissions": null,
                        "childs": [
                            {
                                "fieldtype": "manyToManyRelation",
                                "width": "",
                                "height": "",
                                "maxItems": "",
                                "assetUploadPath": "",
                                "queryColumnType": "text",
                                "phpdocType": "array",
                                "relationType": true,
                                "objectsAllowed": false,
                                "assetsAllowed": false,
                                "assetTypes": [],
                                "documentsAllowed": true,
                                "documentTypes": [
                                    {
                                        "documentTypes": "page"
                                    },
                                    {
                                        "documentTypes": "link"
                                    }
                                ],
                                "lazyLoading": false,
                                "classes": [],
                                "pathFormatterClass": "",
                                "name": "documentRestrictions",
                                "title": "documentRestrictions (Blacklist)",
                                "tooltip": "",
                                "mandatory": false,
                                "noteditable": false,
                                "index": false,
                                "locked": false,
                                "style": "",
                                "permissions": null,
                                "datatype": "data",
                                "invisible": false,
                                "visibleGridView": false,
                                "visibleSearch": false
                            }
                        ],
                        "locked": false
                    },
                    {
                        "fieldtype": "panel",
                        "labelWidth": 100,
                        "layout": null,
                        "name": "Assets",
                        "type": null,
                        "region": null,
                        "title": "Assets",
                        "width": null,
                        "height": null,
                        "collapsible": false,
                        "collapsed": false,
                        "bodyStyle": "",
                        "datatype": "layout",
                        "permissions": null,
                        "childs": [
                            {
                                "fieldtype": "multiselect",
                                "options": [
                                    {
                                        "key": "download",
                                        "value": "download"
                                    }
                                ],
                                "width": "",
                                "height": "",
                                "maxItems": "",
                                "renderType": "tags",
                                "optionsProviderClass": "",
                                "optionsProviderData": "",
                                "queryColumnType": "text",
                                "columnType": "text",
                                "phpdocType": "array",
                                "name": "assetRestrictions",
                                "title": "Asset restrictions (Blacklist)",
                                "tooltip": "",
                                "mandatory": false,
                                "noteditable": false,
                                "index": false,
                                "locked": false,
                                "style": "",
                                "permissions": null,
                                "datatype": "data",
                                "relationType": false,
                                "invisible": false,
                                "visibleGridView": false,
                                "visibleSearch": false
                            }
                        ],
                        "locked": false
                    }
                ],
                "locked": false
            }
        ],
        "locked": false
    },
    "icon": null,
    "previewUrl": null,
    "group": null,
    "linkGeneratorReference": null,
    "propertyVisibility": {
        "grid": {
            "id": true,
            "key": false,
            "path": true,
            "published": true,
            "modificationDate": true,
            "creationDate": true
        },
        "search": {
            "id": true,
            "key": false,
            "path": true,
            "published": true,
            "modificationDate": true,
            "creationDate": true
        }
    }
}